database\Database.class
GUI\mainJPanel$3.class
GUI\mainJFrame$2.class
GUI\mainJFrame$1.class
GUI\mainJPanel$2.class
database\BoardGame.class
GUI\mainJPanel$1.class
GUI\mainJPanel.class
GUI\mainJFrame.class
GUI\mainJPanel$4.class
